{
  "root": "libs/passwrd/types",
  "sourceRoot": "libs/passwrd/types/src",
  "projectType": "library",
  "targets": {
    "lint": {
      "executor": "@nrwl/linter:eslint",
      "outputs": ["{options.outputFile}"],
      "options": {
        "lintFilePatterns": ["libs/passwrd/types/**/*.ts"]
      }
    },
    "test": {
      "executor": "@nrwl/jest:jest",
      "outputs": ["coverage/libs/passwrd/types"],
      "options": {
        "jestConfig": "libs/passwrd/types/jest.config.js",
        "passWithNoTests": true
      }
    }
  },
  "tags": []
}
