{
  "version": 2,
  "projects": {
    "passwrd": "apps/passwrd/public",
    "passwrd-api": "apps/passwrd/api",
    "passwrd-e2e": "apps/passwrd/public-e2e",
    "passwrd-types": "libs/passwrd/types",
    "passwrd-private": "apps/passwrd/private",
    "passwrd-private-e2e": "apps/passwrd/private-e2e"
  }
}
