{
  "root": "apps/passwrd/api",
  "sourceRoot": "apps/passwrd/api/src",
  "projectType": "application",
  "targets": {
    "build": {
      "executor": "@nrwl/node:build",
      "outputs": ["{options.outputPath}"],
      "options": {
        "outputPath": "dist/apps/passwrd/api",
        "main": "apps/passwrd/api/src/main.ts",
        "tsConfig": "apps/passwrd/api/tsconfig.app.json",
        "assets": ["apps/passwrd/api/src/assets"]
      },
      "configurations": {
        "production": {
          "optimization": true,
          "extractLicenses": true,
          "inspect": false,
          "fileReplacements": [
            {
              "replace": "apps/passwrd/api/src/environments/environment.ts",
              "with": "apps/passwrd/api/src/environments/environment.prod.ts"
            }
          ]
        }
      }
    },
    "serve": {
      "executor": "@nrwl/node:execute",
      "options": {
        "buildTarget": "passwrd-api:build"
      }
    },
    "lint": {
      "executor": "@nrwl/linter:eslint",
      "outputs": ["{options.outputFile}"],
      "options": {
        "lintFilePatterns": ["apps/passwrd/api/**/*.ts"]
      }
    },
    "test": {
      "executor": "@nrwl/jest:jest",
      "outputs": ["coverage/apps/passwrd/api"],
      "options": {
        "jestConfig": "apps/passwrd/api/jest.config.js",
        "passWithNoTests": true
      }
    }
  },
  "tags": []
}
