{
  "type": "service_account",
  "project_id": "passwrd-web",
  "private_key_id": "a9898844aed6231df099fc3a4f4f1809c99d9269",
  "private_key": "-----BEGIN PRIVATE KEY-----\nMIIEvgIBADANBgkqhkiG9w0BAQEFAASCBKgwggSkAgEAAoIBAQCcss9CD6Tlj0vL\nFQIDTv0RS8GV8P9UdxOn12GgzsZPUeeveyGBVKav1aWb3+4eRRmgqCuyBP5xXZxH\nMxuf65IIv/bpBWe3d+GOoMTnEdSwQGeC3kkCAAPUz45mQuPojO3gGX3rOp5xCBed\nr+eutms0Gvt3eT8711ZuiNM1dsoElaLeINL27Z/bzkcTfggnA+GNyAeGjfAsQBqj\nVq2gPtc7orOuI1fHmo2h9f5lfZKnbkP7Cwpx/0EEPIhlhY/L3GZFogn1+Kn6iqo7\nfPESAfKNH6fMb5WK5HVpVP0xydTgoweTS/mpah3Hg/sCY7eBoUeGulW+qSbMqabn\n9CLi5EoZAgMBAAECggEABvcHsVcCrFV3N/qiEUWUiA1G+IQyxS1ZyU8QftZSCDqK\nwskFTztVAWHMr6X/bocBwZtX/dys9psDlEKYSr5sykjGD8t2tbf1ZaKNvfuT6ZWj\nRDTfJ+CaSv5CxRbaDH8fH6Pibe84FawXaKHl+WUQVMuSO9g+0EkdBWK9iJXUGun9\n5rQVzo6bLcXw9OoWbufPvkE0ATqYG73Bh33BKSwG/uwR47zVAbU4TKDVplO5bfq/\nu+ePNJzO3x9QRO+4+tokPSa03N7MpdMYOtGPOKqILUUQUTGffd76r1ajrby/BZYK\nVmavMcraTnwgpiR4F4lfb6bcEmk5RGbF9t3wNyM1NQKBgQDbrMVLplZt07DvisQI\nvtFgvutFLCEAp4qxJDcDNmVlpAXT+9nW8L87pDb2ZtKuIDMhhC9apCLo1HQnAvRk\nObpALf3AetWeJ4Ey8Mwk9Dk10ZdEtFHUAZ+SzfX1Da09gtllvOvVpKEOdUiYVMHn\nsZzkx7pbC5hgrcJXS4sf20c2rwKBgQC2nCKfxwTlMIedabNJwXa6+uVZS99UBpwq\njSjsgdMZ+nli1UnglUbjGPpTvBuqo91jyn72LrSUTdJz0XmJjdEGmtqvSRLrE9Qd\n7GlvB5JaJX9Inn4wqdT2cLhRfUZEumjhg1NB8cx6genoPCqJES9GRStq0CDic54/\nvGhjsXO9twKBgQDQkDIpZt28HDZq12bTnsePgPRCkmkrA+bL1EReynBuldHqt7zV\nM3F8oKaGPo1cQLoK4kNLXXa/c6Zru4Ro+933PTMkYfsa0wr5YGGR3EXM8RcbZdAi\n5v+oE9+nL7sBIZBh5YJLLqiy32tzJVWMMrdxBqfJ9TJQ5+gRlWmbb0cnhQKBgQCl\nlz5ajxmkT3aayu/20QW+lqeFayTwSDIy7+CNX0izxQtwESO2EQfABbVyWyDng0LO\nLCEnUsETvuI5flns33oNuDzYOLZ8D3YJUIlnUoFnV5ttmbOqo0bn1t19n9Epn7Rd\n0z2bjg2zhb07h9u2gavR2AWADY3Ua62z9EDhLlhbTwKBgE3WtiytA69wChBkgF+l\n+5RwSA3cXTkJSYwaV1Uw8efFutKzVtf02DbuzqPi1hMwdOtP7kYuYgNV1YFOZ2eq\nd6/eZsebA6Jnnh1RCrLHLzKM3w6qe1owV7Hi3gQPHgVU48aLl6XRXGdhnFmECp8G\nG+e3LCtz79e8RPx2vsEofnHK\n-----END PRIVATE KEY-----\n",
  "client_email": "firebase-adminsdk-k7flf@passwrd-web.iam.gserviceaccount.com",
  "client_id": "104784165077067460077",
  "auth_uri": "https://accounts.google.com/o/oauth2/auth",
  "token_uri": "https://oauth2.googleapis.com/token",
  "auth_provider_x509_cert_url": "https://www.googleapis.com/oauth2/v1/certs",
  "client_x509_cert_url": "https://www.googleapis.com/robot/v1/metadata/x509/firebase-adminsdk-k7flf%40passwrd-web.iam.gserviceaccount.com"
}
